%YAML 1.1
%TAG !u! tag:unity3d.com,2011:
--- !u!1045 &1
EditorBuildSettings:
  m_ObjectHideFlags: 0
  serializedVersion: 2
  m_Scenes:
  - enabled: 0
    path: 
    guid: 00000000000000000000000000000000
  - enabled: 0
    path: Assets/Scenes/MainScene.unity
    guid: 30546513bbb365f4192adc08c12e44aa
  - enabled: 0
    path: Assets/Scenes/Levels/Running.unity
    guid: c7164f241ae4f4e49b4e1900a23d8026
  - enabled: 0
    path: Assets/Scenes/Levels/WoodChopping.unity
    guid: 1b2fa5d4df2340b41adbe86d723c2d66
  - enabled: 0
    path: Assets/Scenes/Levels/Line.unity
    guid: a904edc32e8208c45964aa5df3dbcd63
  - enabled: 0
    path: Assets/Scenes/Levels/Night.unity
    guid: 3828908ad620b624f9ac6b521d54b4f8
  - enabled: 0
    path: Assets/Scenes/Levels/Generator.unity
    guid: de1a2c1668602f8479080f371d6be4b1
  m_configObjects: {}
